<svg xmlns="http://www.w3.org/2000/svg" xmlns:xlink="http://www.w3.org/1999/xlink" width="64" height="64" viewBox="0 0 64 64">
  <defs>
    <rect id="puzzle-a" width="1442" height="576"/>
  </defs>
  <g fill="none" fill-rule="evenodd" transform="translate(-238 -433)">
    <g transform="translate(-93 330)">
      <circle cx="262" cy="86" r="32" fill="#EEEEF6" transform="translate(44 26)"/>
      <text fill="#FF7485" font-family="AppleColorEmoji, Apple Color Emoji" font-size="36" letter-spacing="7.619" transform="translate(94 3)">
        <tspan x="195.19" y="124">🏝</tspan>
      </text>
    </g>
    <rect width="1440" height="1024" fill="#49495A" fill-opacity=".7"/>
    <g transform="translate(-2 230)">
      <use fill="#FFF" xlink:href="#puzzle-a"/>
      <rect width="1441" height="575" x=".5" y=".5" stroke="#CCC"/>
      <g fill="#747BFF" transform="translate(240 203)">
        <path d="M52.961625,23.635 L59.068625,29.274 C61.024625,31.246 61.024625,34.403 59.099625,36.343 L34.429625,60.555 C33.473625,61.517 32.212625,61.999 30.951625,61.999 C29.686625,61.999 28.421625,61.515 27.458625,60.545 L3.44162502,36.343 C1.51962502,34.403 1.51962502,31.246 3.44062502,29.305 L7.75062502,25.227 C8.69262502,24.276 9.90462502,23.841 11.049625,24.052 C12.198625,24.264 13.176625,25.107 13.735625,26.363 C13.760625,26.414 16.351625,32.029 21.083625,32.029 C25.826625,32.029 29.834625,27.784 29.834625,22.76 C29.834625,17.983 24.263625,15.509 24.207625,15.485 C22.945625,14.915 22.109625,13.928 21.898625,12.771 C21.688625,11.615 22.120625,10.395 23.085625,9.423 L27.417625,4.499 C28.386625,3.517 29.625625,3 30.947625,3 C30.948625,3 30.948625,3 30.948625,3 C32.270625,3 33.510625,3.517 34.440625,4.454 L40.068625,10.641 C41.119625,5.709 45.475625,2 50.678625,2 C56.664625,2 61.534625,6.908 61.534625,12.94 C61.534625,18.184 57.854625,22.574 52.961625,23.635 Z M50.678625,4 C45.786625,4 41.806625,8.01 41.806625,12.94 C41.806625,12.95 41.801625,12.959 41.800625,12.969 C41.799625,13.014 41.781625,13.057 41.774625,13.102 C41.759625,13.187 41.749625,13.273 41.715625,13.35 C41.707625,13.366 41.692625,13.379 41.684625,13.396 C41.632625,13.496 41.570625,13.589 41.489625,13.666 C41.485625,13.668 41.485625,13.673 41.481625,13.675 C41.460625,13.695 41.433625,13.701 41.411625,13.718 C41.334625,13.778 41.255625,13.834 41.163625,13.869 C41.110625,13.889 41.055625,13.891 41.000625,13.902 C40.938625,13.914 40.880625,13.94 40.814625,13.94 C40.804625,13.94 40.796625,13.934 40.786625,13.934 C40.724625,13.932 40.665625,13.91 40.604625,13.897 C40.539625,13.883 40.471625,13.877 40.412625,13.85 C40.366625,13.83 40.330625,13.793 40.287625,13.766 C40.221625,13.723 40.153625,13.685 40.100625,13.629 C40.094625,13.622 40.085625,13.62 40.079625,13.614 L33.006625,5.837 C32.481625,5.308 31.740625,5 30.948625,5 C30.156625,5 29.416625,5.308 28.862625,5.868 L24.529625,10.793 C23.984625,11.345 23.757625,11.903 23.849625,12.409 C23.942625,12.917 24.353625,13.359 25.005625,13.655 C25.271625,13.769 31.818625,16.682 31.818625,22.76 C31.818625,28.973 27.002625,34.029 21.083625,34.029 C15.062625,34.029 12.051625,27.463 11.926625,27.183 C11.633625,26.525 11.195625,26.113 10.691625,26.019 C10.181625,25.922 9.63462502,26.155 9.13262502,26.662 L4.82262502,30.74 C3.69562502,31.88 3.69562502,33.769 4.84562502,34.929 L28.861625,59.131 C30.012625,60.289 31.885625,60.29 33.036625,59.13 L57.706625,34.919 C58.847625,33.769 58.847625,31.88 57.695625,30.719 L50.007625,23.621 C50.002625,23.615 50.000625,23.608 49.994625,23.602 C49.940625,23.55 49.903625,23.483 49.862625,23.419 C49.832625,23.374 49.793625,23.334 49.772625,23.285 C49.751625,23.238 49.749625,23.184 49.736625,23.133 C49.716625,23.057 49.691625,22.983 49.690625,22.904 C49.690625,22.897 49.686625,22.891 49.686625,22.883 C49.686625,22.833 49.707625,22.79 49.714625,22.742 C49.725625,22.667 49.730625,22.593 49.758625,22.522 C49.785625,22.453 49.829625,22.396 49.870625,22.335 C49.897625,22.293 49.911625,22.245 49.946625,22.207 C49.951625,22.201 49.959625,22.199 49.964625,22.194 C50.018625,22.137 50.086625,22.099 50.153625,22.056 C50.195625,22.029 50.232625,21.991 50.278625,21.971 C50.330625,21.947 50.390625,21.944 50.446625,21.93 C50.516625,21.913 50.583625,21.889 50.655625,21.888 C50.663625,21.888 50.670625,21.883 50.678625,21.883 C55.570625,21.883 59.550625,17.871 59.550625,12.94 C59.550625,8.01 55.570625,4 50.678625,4 Z"/>
      </g>
    </g>
  </g>
</svg>
